Monday,9:15am,6/19/2017,Rowena Morgan,Blackhawk Plaza
Monday,10:15am,6/19/2017,Rowena Morgan,Blackhawk Plaza
Monday,11:15am,6/19/2017,Rowena Morgan,Blackhawk Plaza
,,,,,,,,,,Thursday,9:15am,6/22/2017,Rowena Morgan, Ingram & Braun Musik Shoppe,,,,
,,,,,,,,,,Thursday,10:15am,6/22/2017,Rowena Morgan, Ingram & Braun Musik Shoppe,,,,
,,,,,,,,,,Thursday,11:15am,6/22/2017,Rowena Morgan, Ingram & Braun Musik Shoppe,,,,
,,,,,,,,,,Friday,9:15am,6/23/2017,Rowena Morgan,Music & Beyond-Dublin,,,,
,,,,,,,,,,Friday,10:15am,6/23/2017,Rowena Morgan,Music & Beyond-Dublin,,,,
,,,,,,,,,,Saturday,9:am,6/24/2017,Rowena Morgan,Blackhawk Plaza,,,,
,,,,,,,,,,Saturday,10:am,6/24/2017,Rowena Morgan,Blackhawk Plaza,,,,
,,,,,,,,,,Saturday,12:pm,6/24/2017,Rowena Morgan,Blackhawk Plaza,,,,
,,,,,,,,,,Saturday,1:30pm,6/24/2017,Rowena Morgan,Blackhawk Plaza,,,,
,,,,,,,,,,Saturday,11:am,6/24/2017,Rowena Morgan,Blackhawk Plaza,,,,
,,,,,,,,,,Monday,9.15 am,6/19/2017,Nick Bang,Contra Costa Ballet Centre,,,,
,,,,,,,,,,Monday,11.15 am,6/19/2017,Rana Rines,Contra Costa Ballet Centre,,,,
,,,,,,,,,,Tuesday,9.30 am,6/20/2017,Rana Rines,Blackhawk Plaza,,,,
,,,,,,,,,,Tuesday,10.30 am,6/20/2017,Rana Rines,Blackhawk Plaza,,,,
,,,,,,,,,,Wednesday,09:00 am,6/21/2017,Rana Rines,Music & Beyond - Alamo,,,,
,,,,,,,,,,Wednesday,10:00 am,6/21/2017,Rana Rines,Music & Beyond - Alamo,,,,
,,,,,,,,,,Wednesday,11:00 am,6/21/2017,Rana Rines,Music & Beyond - Alamo,,,,
,,,,,,,,,,Thursday,9:15am,6/22/2017,Rana Rines,Blackhawk Plaza,,,,
,,,,,,,,,,Thursday,10:15am,6/22/2017,Rana Rines,Blackhawk Plaza,,,,
,,,,,,,,,,Thursday,11:15am,6/22/2017,Rana Rines,Blackhawk Plaza,,,,
,,,,,,,,,,Friday,10am,06/23/2017,Rana Rines,Contra Costa Ballet Centre,,,,
,,,,,,,,,,Friday,11am,06/23/2017,Rana Rines,Contra Costa Ballet Centre,,,,
,,,,,,,,,,Thursday,9:15am,7/13/2017,Bunny Chen,Music & Beyond-Dublin,,,,
,,,,,,,,,,Thursday,10:15am,7/13/2017,Bunny Chen,Music & Beyond-Dublin,,,,
,,,,,,,,,,Friday,9:15am,7/14/2017,Bunny Chen,Blackhawk Plaza,,,,
,,,,,,,,,,Friday,10:15am,7/14/2017,Bunny Chen,Blackhawk Plaza,,,,
,,,,,,,,,,Tuesday,9:30am,6/20/2017,Nick Bang,St.Andrews Presbyterian  Church,,,,
,,,,,,,,,,Tuesday,10:30am,6/20/2017,Nick Bang,St.Andrews Presbyterian  Church,,,,
,,,,,,,,,,Wednesday,10:15am,6/21/2017,Nick Bang,Contra Costa Ballet Centre,,,,
,,,,,,,,,,Wednesday,5pm,6/21/2017,Nick Bang, Ingram & Braun Musik Shoppe,,,,
,,,,,,,,,,Wednesday,4pm,6/21/2017,Nick Bang, Ingram & Braun Musik Shoppe,,,,
,,,,,,,,,,Thursday,9:45am,6/22/2017,Nick Bang,Music & Beyond - Alamo,,,,
,,,,,,,,,,Friday,9:15am,6/16/2017,Nick Bang,Blackhawk Plaza,,,,
,,,,,,,,,,Friday,10:15am,6/16/2017,Nick Bang,Blackhawk Plaza,,,,
,,,,,,,,,,Saturday,9.00am,6/24/2017,Nick Bang,"The Classroom at The Gym, Tice Valley Blvd",,,,
,,,,,,,,,,Saturday,10.00am,6/24/2017,Nick Bang,"The Classroom at The Gym, Tice Valley Blvd",,,,
,,,,,,,,,,Saturday,9:am,6/24/2017,Jenny Madrigal, Ingram & Braun Musik Shoppe,,,,
,,,,,,,,,,Saturday,10:am,6/24/2017,Jenny Madrigal, Ingram & Braun Musik Shoppe,,,,
,,,,,,,,,,Tuesday,4.45pm,07/11/2017,Julia McLeod,"The Classroom at The Gym, Tice Valley Blvd",,,,
,,,,,,,,,,Tuesday,5.45pm,07/11/2017,Julia McLeod,"The Classroom at The Gym, Tice Valley Blvd",,,,
,,,,,,,,,,Wednesday,9:15am,6/21/2017,Meredith McHenry,Blackhawk Plaza,,,,
,,,,,,,,,,Wednesday,10:15am,6/21/2017,Meredith McHenry,Blackhawk Plaza,,,,
,,,,,,,,,,Saturday,11:am,6/24/2017,Jenny Madrigal, Ingram & Braun Musik Shoppe,,,,
,,,,,,,,,,Saturday,10:30am,6/24/2017,Meredith McHenry,Music & Beyond-Dublin,,,,
,,,,,,,,,,Monday,12.15 pm,6/19/2017,Rana Rines,Contra Costa Ballet Centre,,,,
